Parry_2023_Seurat_analysis
…
# Collect the GSEA result
GOBP_GSEA.result <- GOBP_gsea@result
GOBP_GSEA.result %>%
  as_tibble() %>%
  dplyr::select(c(Description, NES, pvalue, p.adjust))

# A tibble: 75 × 4
   Description                                              NES  pvalue p.adjust
   <chr>                                                  <dbl>   <dbl>    <dbl>
 1 GOBP_COMPLEMENT_ACTIVATION_CLASSICAL_PATHWAY           -2.45 4.87e-9  1.12e-5
 2 GOBP_MRNA_PROCESSING                                   -1.74 8.75e-9  1.12e-5
 3 GOBP_POSITIVE_REGULATION_OF_DNA_TEMPLATED_TRANSCRIPTI… -2.14 2.37e-6  1.22e-3
 4 GOBP_DNA_TEMPLATED_TRANSCRIPTION_ELONGATION            -1.94 1.86e-6  1.22e-3
 5 GOBP_RNA_SPLICING                                      -1.59 2.33e-6  1.22e-3
 6 GOBP_POSITIVE_REGULATION_OF_TRANSCRIPTION_ELONGATION_… -2.21 3.79e-6  1.32e-3
 7 GOBP_REGULATION_OF_DNA_TEMPLATED_TRANSCRIPTION_ELONGA… -2.01 3.46e-6  1.32e-3
 8 GOBP_SMALL_MOLECULE_BIOSYNTHETIC_PROCESS                1.59 4.10e-6  1.32e-3
 9 GOBP_COMPLEMENT_ACTIVATION                             -2.17 6.39e-6  1.68e-3
10 GOBP_SMALL_MOLECULE_CATABOLIC_PROCESS                   1.67 6.54e-6  1.68e-3
# ℹ 65 more rows
…
